Select Best Dynamic Adjust Model — dyn_adj_best • wavcoreinf
…
hHorizon used in direct estimation. See dyn_adj_est.

    See also

    dyn_adj_est

    Examples

inf_head <- coreinf_br[["ipca"]]
inf_corems <- coreinf_br[["ipcams"]]
models <- dyn_adj_est(inf_head, inf_corems, 2, 2)
dyn_adj_best(models, ic = AIC)
#> $data
#> # A tibble: 302 x 4
#>    inf_head_diff inf_head_minus_inf_corems inf_head_lag3 inf_head_lag4
#>            <dbl>                     <dbl>         <dbl>         <dbl>
#>  1        NA                            NA         NA            NA   
#>  2        NA                            NA         NA            NA   
#>  3        -5.31                         NA         NA            NA   
#>  4         0.76                         NA          6.84         NA   
#>  5         1.28                         NA          1.86          6.84
#>  6        -0.91                         NA          1.53          1.86
#>  7        -1.11                         NA          2.62          1.53
#>  8        -0.69                         NA          2.81          2.62
#>  9        -0.150                        NA          1.71          2.81
#> 10         1.41                         NA          1.7           1.71
#> # ... with 292 more rows
…
