Direct Autoregressive Forecast Model — model_est_single • wavcoreinf
…
    See also

    model_est model_fcast

    Examples

x <- arima.sim(n = 30, list(ar = c(0.8897, -0.4858)))
p <- unique(lags(2, 1)[, 1:2])
model_est_single(x, 2, p)
#> [[1]]
#> [[1]]$data
#> # A tibble: 30 x 2
#>         x x_lag2
#>     <dbl>  <dbl>
#>  1  0.321 NA    
#>  2  0.381 NA    
#>  3  0.546  0.321
#>  4 -1.00   0.381
#>  5 -0.421  0.546
#>  6  2.00  -1.00 
#>  7  1.89  -0.421
#>  8 -0.229  2.00 
#>  9 -1.14   1.89 
#> 10 -1.73  -0.229
#> # ... with 20 more rows
…
#> Coefficients:
#> (Intercept)       x_lag2  
#>      0.1384      -0.1995  
#> 
#> 
#> [[1]]$n_obs
#> [1] 30
#> 
#> [[1]]$h
#> [1] 2
#> 
#> 
#> [[2]]
#> [[2]]$data
#> # A tibble: 30 x 3
#>         x x_lag2 x_lag3
#>     <dbl>  <dbl>  <dbl>
#>  1  0.321 NA     NA    
#>  2  0.381 NA     NA    
#>  3  0.546  0.321 NA    
#>  4 -1.00   0.381  0.321
#>  5 -0.421  0.546  0.381
#>  6  2.00  -1.00   0.546
#>  7  1.89  -0.421 -1.00 
#>  8 -0.229  2.00  -0.421
#>  9 -1.14   1.89   2.00 
#> 10 -1.73  -0.229  1.89 
#> # ... with 20 more rows
…
