Estimate Direct Forecasting Model — model_est • wavcoreinf
…
    See also

    model_est_single model_fcast

    Examples

inf_head <- coreinf_br[["ipca"]]
inf_corems <- coreinf_br[["ipcams"]]
pq <- lags(2, 1)
model_est(inf_head, inf_corems, 2, pq)
#> [[1]]
#> [[1]]$data
#> # A tibble: 302 x 3
#>    inf_head inf_head_lag2 inf_corems_lag2
#>       <dbl>         <dbl>           <dbl>
#>  1     6.84         NA                 NA
#>  2     1.86         NA                 NA
#>  3     1.53          6.84              NA
#>  4     2.62          1.86              NA
#>  5     2.81          1.53              NA
#>  6     1.71          2.62              NA
#>  7     1.7           2.81              NA
#>  8     1.02          1.71              NA
#>  9     1.55          1.7               NA
#> 10     2.43          1.02              NA
#> # ... with 292 more rows
…
#> Coefficients:
#>     (Intercept)    inf_head_lag2  inf_corems_lag2  
#>          0.2223           0.2169           0.3430  
#> 
#> 
#> [[1]]$n_obs
#> [1] 302
#> 
#> [[1]]$h
#> [1] 2
#> 
#> 
#> [[2]]
#> [[2]]$data
#> # A tibble: 302 x 4
#>    inf_head inf_head_lag2 inf_head_lag3 inf_corems_lag2
#>       <dbl>         <dbl>         <dbl>           <dbl>
#>  1     6.84         NA            NA                 NA
#>  2     1.86         NA            NA                 NA
#>  3     1.53          6.84         NA                 NA
#>  4     2.62          1.86          6.84              NA
#>  5     2.81          1.53          1.86              NA
#>  6     1.71          2.62          1.53              NA
#>  7     1.7           2.81          2.62              NA
#>  8     1.02          1.71          2.81              NA
#>  9     1.55          1.7           1.71              NA
#> 10     2.43          1.02          1.7               NA
#> # ... with 292 more rows
…
