Compute Best (Median) Wavelet Series — wcore_best_median • wavcoreinf
…
err_wcore <- error_wave_summary(h = 2, x = wshr_obj,
                                y = inf_head, lags = lags(2,1),
                                k = 6, RMSE = TRUE)

wavcore_smry <- wcore_summary_fcast(inf_head, core_wavelet2, err_wcore)
#> Warning: unnest() has a new interface. See ?unnest for details.
#> Try `df %>% unnest(c(sd, mav25, no_bias, dyn_inf, dyn_core))`, with `mutate()` if needed

x <- wcore_summary_best(wavcore_smry)

wcore_best_median(x)
#> Warning: unnest() has a new interface. See ?unnest for details.
#> Try `df %>% unnest(c(date, x_sm))`, with `mutate()` if needed
#> # A tibble: 302 x 2
#>     date wcore_med
#>    <dbl>     <dbl>
#>  1 1994.      6.80
#>  2 1995.      1.74
#>  3 1995.      1.61
#>  4 1995.      2.70
#>  5 1995.      2.76
#>  6 1995.      1.67
#>  7 1995       1.61
#>  8 1995.      1.50
#>  9 1995.      1.67
#> 10 1995.      2.22
#> # ... with 292 more rows
…
